<svg width="98" height="49" viewBox="0 0 98 49" fill="none" xmlns="http://www.w3.org/2000/svg">
<path d="M97.4472 29.1206L74.444 6.26082C74.5852 6.27008 74.7268 6.27008 74.868 6.26082C75.5106 6.26594 76.1392 6.07537 76.6697 5.71471C77.2001 5.35405 77.6068 4.84057 77.8352 4.24326C78.0636 3.64596 78.1028 2.99344 77.9474 2.37336C77.792 1.75329 77.4495 1.19537 76.9659 0.774552C76.4824 0.353737 75.8809 0.090189 75.2424 0.019315C74.6038 -0.051559 73.9587 0.0736346 73.3938 0.378078C72.8289 0.682522 72.3712 1.15163 72.0821 1.72238C71.7931 2.29313 71.6867 2.93818 71.7771 3.57087L49 26.2901L26.1947 3.60836C26.281 2.98037 26.1725 2.34112 25.8837 1.77614C25.5948 1.21115 25.1393 0.747379 24.5782 0.446865C24.0171 0.146351 23.3771 0.0234292 22.7438 0.0945444C22.1106 0.16566 21.5142 0.427422 21.0346 0.844808C20.555 1.26219 20.215 1.8153 20.0601 2.43012C19.9051 3.04494 19.9427 3.69216 20.1677 4.28518C20.3927 4.87821 20.7944 5.38875 21.3191 5.74852C21.8437 6.10828 22.4664 6.30009 23.1037 6.2983C23.2449 6.30756 23.3865 6.30756 23.5277 6.2983L0.552769 29.1206C0.377533 29.2947 0.238517 29.5015 0.143668 29.729C0.0488202 29.9566 0 30.2005 0 30.4469C0 30.6932 0.0488202 30.9371 0.143668 31.1647C0.238517 31.3923 0.377533 31.599 0.552769 31.7731L17.3458 48.4751C17.4341 48.5638 17.5321 48.6424 17.6379 48.7094C17.705 48.7561 17.7778 48.7939 17.8547 48.8219L17.9678 48.8875L18.2128 48.9625H18.3164C18.5589 49.0125 18.8091 49.0125 19.0515 48.9625H19.1457L19.4002 48.8875L19.5132 48.8219C19.5861 48.7918 19.6556 48.7541 19.7206 48.7094C19.8281 48.6448 19.9264 48.5659 20.0127 48.4751L27.9757 40.5646L42.9971 25.6153L46.3331 28.9426L30.2374 44.951C29.9749 45.2137 29.7964 45.5479 29.7247 45.9113C29.6529 46.2748 29.691 46.6512 29.8342 46.9931C29.9773 47.3351 30.2192 47.6272 30.5291 47.8325C30.839 48.0379 31.2032 48.1474 31.5756 48.1471C32.0746 48.145 32.5525 47.9461 32.9043 47.5941L49 31.595L65.0957 47.5941C65.4475 47.9461 65.9254 48.145 66.4244 48.1471C66.7968 48.1474 67.161 48.0379 67.4709 47.8325C67.7808 47.6272 68.0227 47.3351 68.1658 46.9931C68.309 46.6512 68.3471 46.2748 68.2753 45.9113C68.2036 45.5479 68.0251 45.2137 67.7626 44.951L51.6669 28.9426L55.0029 25.6153L70.0243 40.5646L77.9873 48.4751C78.0736 48.5659 78.1719 48.6448 78.2794 48.7094C78.3444 48.7541 78.4139 48.7918 78.4867 48.8219L78.5998 48.8875L78.8543 48.9625H78.9485C79.1909 49.0125 79.4411 49.0125 79.6836 48.9625H79.7872L80.0322 48.8875L80.1453 48.8219C80.2222 48.7939 80.295 48.7561 80.3621 48.7094C80.4679 48.6424 80.5659 48.5638 80.6542 48.4751L97.4472 31.7731C97.6225 31.599 97.7615 31.3923 97.8563 31.1647C97.9512 30.9371 98 30.6932 98 30.4469C98 30.2005 97.9512 29.9566 97.8563 29.729C97.7615 29.5015 97.6225 29.2947 97.4472 29.1206ZM12.502 22.5598L17.7981 17.2924L23.556 22.9722L18.2693 28.2302L12.502 22.5598ZM18.2411 33.5633L23.9707 39.2618L18.684 44.5292L12.9449 38.7932L18.2411 33.5633ZM34.6006 28.6708L28.8616 22.9722L34.6006 17.2643L40.3302 22.9722L34.6006 28.6708ZM71.8053 25.6153L77.092 30.8827L71.3624 36.5906L66.0663 31.3232L71.8053 25.6153ZM71.8053 20.3197L66.0663 14.6118L71.8053 8.91327L77.535 14.6118L71.8053 20.3197ZM87.722 36.1501L82.4259 30.8827L88.1649 25.1841L93.4516 30.4422L87.722 36.1501Z" fill="url(#paint0_linear)"/>
<defs>
<linearGradient id="paint0_linear" x1="91.4889" y1="44.075" x2="57.7139" y2="-23.1397" gradientUnits="userSpaceOnUse">
<stop stop-color="#2E36FD"/>
<stop offset="1" stop-color="#3CACCF"/>
</linearGradient>
</defs>
</svg>
